<svg width="42" height="42" viewBox="0 0 42 42" fill="none" xmlns="http://www.w3.org/2000/svg">
<circle cx="21" cy="21" r="21" fill="#7BC049"/>
<path d="M21 9C14.3833 9 9 14.3833 9 21C9 27.6167 14.3833 33 21 33C27.6167 33 33 27.6167 33 21C33 14.3833 27.6167 9 21 9ZM21 31.5C15.2102 31.5 10.5 26.7898 10.5 21C10.5 15.2102 15.2102 10.5 21 10.5C26.7898 10.5 31.5 15.2102 31.5 21C31.5 26.7898 26.7898 31.5 21 31.5Z" fill="white"/>
<path d="M21.75 13.5H20.25V21.3105L24.9697 26.0302L26.0303 24.9697L21.75 20.6894V13.5Z" fill="white"/>
</svg>
